%YAML 1.1
%TAG !u! tag:unity3d.com,2011:
--- !u!74 &7400000
AnimationClip:
  m_ObjectHideFlags: 0
  m_PrefabParentObject: {fileID: 0}
  m_PrefabInternal: {fileID: 0}
  m_Name: Stun
  serializedVersion: 4
  m_AnimationType: 2
  m_Compressed: 0
  m_UseHighQualityCurve: 1
  m_RotationCurves:
  - curve:
      serializedVersion: 2
      m_Curve:
      - time: 0
        value: {x: 0, y: 0, z: 0, w: 1}
        inSlope: {x: 0, y: 0, z: .850989163, w: -.00603675796}
        outSlope: {x: 0, y: 0, z: .850989163, w: -.00603675796}
        tangentMode: 0
      - time: .0166666675
        value: {x: 0, y: 0, z: .0141831534, w: .999899387}
        inSlope: {x: 0, y: 0, z: .852264941, w: -.0121074906}
        outSlope: {x: 0, y: 0, z: .852264941, w: -.0121074906}
        tangentMode: 0
      - time: .0333333351
        value: {x: 0, y: 0, z: .0284088328, w: .999596417}
        inSlope: {x: 0, y: 0, z: .854577601, w: -.0243043862}
        outSlope: {x: 0, y: 0, z: .854577601, w: -.0243043862}
        tangentMode: 0
      - time: .0500000045
        value: {x: 0, y: 0, z: .0426690765, w: .999089241}
        inSlope: {x: 0, y: 0, z: .856411219, w: -.0365924835}
        outSlope: {x: 0, y: 0, z: .856411219, w: -.0365924835}
        tangentMode: 0
      - time: .0666666701
        value: {x: 0, y: 0, z: .056955874, w: .998376667}
        inSlope: {x: 0, y: 0, z: .857763886, w: -.048946742}
        outSlope: {x: 0, y: 0, z: .857763886, w: -.048946742}
        tangentMode: 0
      - time: .0833333358
        value: {x: 0, y: 0, z: .0712612048, w: .997457683}
        inSlope: {x: 0, y: 0, z: .858634591, w: -.0613528565}
        outSlope: {x: 0, y: 0, z: .858634591, w: -.0613528565}
        tangentMode: 0
      - time: .100000001
        value: {x: 0, y: 0, z: .085577026, w: .996331573}
        inSlope: {x: 0, y: 0, z: .859021962, w: -.0737911537}
        outSlope: {x: 0, y: 0, z: .859021962, w: -.0737911537}
        tangentMode: 1065353216
      - time: .116666667
        value: {x: 0, y: 0, z: .0998952687, w: .994997978}
        inSlope: {x: 0, y: 0, z: .858925879, w: -.0862401575}
        outSlope: {x: 0, y: 0, z: .858925879, w: -.0862401575}
        tangentMode: 0
      - time: .13333334
        value: {x: 0, y: 0, z: .114207894, w: .9934569}
        inSlope: {x: 0, y: 0, z: .858347416, w: -.0986802429}
        outSlope: {x: 0, y: 0, z: .858347416, w: -.0986802429}
        tangentMode: 0
      - time: .150000006
        value: {x: 0, y: 0, z: .128506854, w: .991708636}
        inSlope: {x: 0, y: 0, z: .857287288, w: -.11109174}
        outSlope: {x: 0, y: 0, z: .857287288, w: -.11109174}
        tangentMode: 0
      - time: .166666672
        value: {x: 0, y: 0, z: .142784134, w: .989753842}
        inSlope: {x: 0, y: 0, z: .855747223, w: -.123453155}
        outSlope: {x: 0, y: 0, z: .855747223, w: -.123453155}
        tangentMode: 0
      - time: .183333337
        value: {x: 0, y: 0, z: .15703176, w: .987593532}
        inSlope: {x: 0, y: 0, z: .853730202, w: -.135744825}
        outSlope: {x: 0, y: 0, z: .853730202, w: -.135744825}
        tangentMode: 0
      - time: .200000003
        value: {x: 0, y: 0, z: .171241805, w: .985229015}
        inSlope: {x: 0, y: 0, z: .851239324, w: -.147948876}
        outSlope: {x: 0, y: 0, z: .851239324, w: -.147948876}
        tangentMode: 0
      - time: .216666669
        value: {x: 0, y: 0, z: .185406402, w: .982661903}
        inSlope: {x: 0, y: 0, z: .848279059, w: -.160043851}
        outSlope: {x: 0, y: 0, z: .848279059, w: -.160043851}
        tangentMode: 0
      - time: .233333334
        value: {x: 0, y: 0, z: .199517772, w: .979894221}
        inSlope: {x: 0, y: 0, z: .84485209, w: -.172011867}
        outSlope: {x: 0, y: 0, z: .84485209, w: -.172011867}
        tangentMode: 0
      - time: .25
        value: {x: 0, y: 0, z: .213568136, w: .976928174}
        inSlope: {x: 0, y: 0, z: .840964735, w: -.183834955}
        outSlope: {x: 0, y: 0, z: .840964735, w: -.183834955}
        tangentMode: 0
      - time: .266666681
        value: {x: 0, y: 0, z: .22754994, w: .973766387}
        inSlope: {x: 0, y: 0, z: .836624503, w: -.195489958}
        outSlope: {x: 0, y: 0, z: .836624503, w: -.195489958}
        tangentMode: 0
      - time: .283333361
        value: {x: 0, y: 0, z: .241455644, w: .970411837}
        inSlope: {x: 0, y: 0, z: .831833661, w: -.206959069}
        outSlope: {x: 0, y: 0, z: .831833661, w: -.206959069}
        tangentMode: 0
      - time: .300000042
        value: {x: 0, y: 0, z: .255277753, w: .966867745}
        inSlope: {x: 0, y: 0, z: .826601565, w: -.218226135}
        outSlope: {x: 0, y: 0, z: .826601565, w: -.218226135}
        tangentMode: 1065353215
      - time: .316666722
        value: {x: 0, y: 0, z: .269009054, w: .963137627}
        inSlope: {x: 0, y: 0, z: .820935845, w: -.229271457}
        outSlope: {x: 0, y: 0, z: .820935845, w: -.229271457}
        tangentMode: 0
      - time: .333333403
        value: {x: 0, y: 0, z: .282642305, w: .959225357}
        inSlope: {x: 0, y: 0, z: .814844608, w: -.240077168}
        outSlope: {x: 0, y: 0, z: .814844608, w: -.240077168}
        tangentMode: -1
      - time: .350000083
        value: {x: 0, y: 0, z: .296170563, w: .955135047}
        inSlope: {x: 0, y: 0, z: .808337569, w: -.250625402}
        outSlope: {x: 0, y: 0, z: .808337569, w: -.250625402}
        tangentMode: -1
      - time: .366666764
        value: {x: 0, y: 0, z: .309586912, w: .95087117}
        inSlope: {x: 0, y: 0, z: .801421046, w: -.260901839}
        outSlope: {x: 0, y: 0, z: .801421046, w: -.260901839}
        tangentMode: -1
      - time: .383333445
        value: {x: 0, y: 0, z: .322884619, w: .946438313}
        inSlope: {x: 0, y: 0, z: .794104874, w: -.270886779}
        outSlope: {x: 0, y: 0, z: .794104874, w: -.270886779}
        tangentMode: -1
      - time: .400000125
        value: {x: 0, y: 0, z: .336057097, w: .941841602}
        inSlope: {x: 0, y: 0, z: .78640157, w: -.280562401}
        outSlope: {x: 0, y: 0, z: .78640157, w: -.280562401}
        tangentMode: -1
      - time: .416666806
        value: {x: 0, y: 0, z: .349098027, w: .937086225}
        inSlope: {x: 0, y: 0, z: .778320968, w: -.289917946}
        outSlope: {x: 0, y: 0, z: .778320968, w: -.289917946}
        tangentMode: -1
      - time: .433333486
        value: {x: 0, y: 0, z: .362001151, w: .932177663}
        inSlope: {x: 0, y: 0, z: .76987201, w: -.298935533}
        outSlope: {x: 0, y: 0, z: .76987201, w: -.298935533}
        tangentMode: -1
      - time: .450000167
        value: {x: 0, y: 0, z: .374760449, w: .927121699}
        inSlope: {x: 0, y: 0, z: .761069, w: -.307600856}
        outSlope: {x: 0, y: 0, z: .761069, w: -.307600856}
        tangentMode: -1
      - time: .466666847
        value: {x: 0, y: 0, z: .387370139, w: .921924293}
        inSlope: {x: 0, y: 0, z: .751921773, w: -.315899581}
        outSlope: {x: 0, y: 0, z: .751921773, w: -.315899581}
        tangentMode: -1
      - time: .483333528
        value: {x: 0, y: 0, z: .39982453, w: .916591704}
        inSlope: {x: 0, y: 0, z: .742441773, w: -.32381773}
        outSlope: {x: 0, y: 0, z: .742441773, w: -.32381773}
        tangentMode: 256
      - time: .500000179
        value: {x: 0, y: 0, z: .412118196, w: .911130369}
        inSlope: {x: 0, y: 0, z: .740495145, w: -.335020721}
        outSlope: {x: 0, y: 0, z: .740495145, w: -.335020721}
        tangentMode: 3
      - time: .51666683
        value: {x: 0, y: 0, z: .424507678, w: .905424356}
        inSlope: {x: 0, y: 0, z: .752164543, w: -.352841377}
        outSlope: {x: 0, y: 0, z: .752164543, w: -.352841377}
        tangentMode: 0
      - time: .53333348
        value: {x: 0, y: 0, z: .437190324, w: .899369001}
        inSlope: {x: 0, y: 0, z: .766976595, w: -.372986555}
        outSlope: {x: 0, y: 0, z: .766976595, w: -.372986555}
        tangentMode: 0
      - time: .550000131
        value: {x: 0, y: 0, z: .45007354, w: .892991483}
        inSlope: {x: 0, y: 0, z: .776286542, w: -.391365051}
        outSlope: {x: 0, y: 0, z: .776286542, w: -.391365051}
        tangentMode: 7
      - time: .566666782
        value: {x: 0, y: 0, z: .463066518, w: .886323512}
        inSlope: {x: 0, y: 0, z: .78020972, w: -.40769437}
        outSlope: {x: 0, y: 0, z: .78020972, w: -.40769437}
        tangentMode: 1038244856
      - time: .583333433
        value: {x: 0, y: 0, z: .476080507, w: .879401684}
        inSlope: {x: 0, y: 0, z: .778881133, w: -.421683013}
        outSlope: {x: 0, y: 0, z: .778881133, w: -.421683013}
        tangentMode: 0
      - time: .600000083
        value: {x: 0, y: 0, z: .489029199, w: .872267425}
        inSlope: {x: 0, y: 0, z: .772449195, w: -.433041275}
        outSlope: {x: 0, y: 0, z: .772449195, w: -.433041275}
        tangentMode: 7
      - time: .616666734
        value: {x: 0, y: 0, z: .50182879, w: .864966989}
        inSlope: {x: 0, y: 0, z: .761073053, w: -.441481292}
        outSlope: {x: 0, y: 0, z: .761073053, w: -.441481292}
        tangentMode: 0
      - time: .633333385
        value: {x: 0, y: 0, z: .514398277, w: .857551396}
        inSlope: {x: 0, y: 0, z: .744918108, w: -.446718752}
        outSlope: {x: 0, y: 0, z: .744918108, w: -.446718752}
        tangentMode: 4
      - time: .650000036
        value: {x: 0, y: 0, z: .526659369, w: .850076377}
        inSlope: {x: 0, y: 0, z: .724163175, w: -.448487222}
        outSlope: {x: 0, y: 0, z: .724163175, w: -.448487222}
        tangentMode: 1062913433
      - time: .666666687
        value: {x: 0, y: 0, z: .538537025, w: .842601836}
        inSlope: {x: 0, y: 0, z: .698980749, w: -.446536362}
        outSlope: {x: 0, y: 0, z: .698980749, w: -.446536362}
        tangentMode: 4
      - time: .683333337
        value: {x: 0, y: 0, z: .549958706, w: .835191846}
        inSlope: {x: 0, y: 0, z: .669547915, w: -.440639079}
        outSlope: {x: 0, y: 0, z: .669547915, w: -.440639079}
        tangentMode: 1065337936
      - time: .699999988
        value: {x: 0, y: 0, z: .560855269, w: .82791388}
        inSlope: {x: 0, y: 0, z: .63603282, w: -.430587947}
        outSlope: {x: 0, y: 0, z: .63603282, w: -.430587947}
        tangentMode: -1084334395
      - time: .716666639
        value: {x: 0, y: 0, z: .57115978, w: .820838928}
        inSlope: {x: 0, y: 0, z: .59859097, w: -.416205943}
        outSlope: {x: 0, y: 0, z: .59859097, w: -.416205943}
        tangentMode: 0
      - time: .73333329
        value: {x: 0, y: 0, z: .580808282, w: .814040363}
        inSlope: {x: 0, y: 0, z: .557379663, w: -.397351742}
        outSlope: {x: 0, y: 0, z: .557379663, w: -.397351742}
        tangentMode: -1094807868
      - time: .74999994
        value: {x: 0, y: 0, z: .589739084, w: .807593882}
        inSlope: {x: 0, y: 0, z: .512508035, w: -.373907447}
        outSlope: {x: 0, y: 0, z: .512508035, w: -.373907447}
        tangentMode: 0
      - time: .766666591
        value: {x: 0, y: 0, z: .597891867, w: .801576793}
        inSlope: {x: 0, y: 0, z: .464074463, w: -.345799685}
        outSlope: {x: 0, y: 0, z: .464074463, w: -.345799685}
        tangentMode: 0
      - time: .783333242
        value: {x: 0, y: 0, z: .605208218, w: .796067238}
        inSlope: {x: 0, y: 0, z: .412159353, w: -.312996209}
        outSlope: {x: 0, y: 0, z: .412159353, w: -.312996209}
        tangentMode: 6
      - time: .799999893
        value: {x: 0, y: 0, z: .611630499, w: .791143596}
        inSlope: {x: 0, y: 0, z: .356784225, w: -.275498867}
        outSlope: {x: 0, y: 0, z: .356784225, w: -.275498867}
        tangentMode: 0
      - time: .816666543
        value: {x: 0, y: 0, z: .617101014, w: .78688395}
        inSlope: {x: 0, y: 0, z: .293872058, w: -.230128378}
        outSlope: {x: 0, y: 0, z: .293872058, w: -.230128378}
        tangentMode: 4
      - time: .833333194
        value: {x: 0, y: 0, z: .621426225, w: .783472657}
        inSlope: {x: 0, y: 0, z: .22343716, w: -.176947296}
        outSlope: {x: 0, y: 0, z: .22343716, w: -.176947296}
        tangentMode: 1062958894
      - time: .849999845
        value: {x: 0, y: 0, z: .624548912, w: .780985713}
        inSlope: {x: 0, y: 0, z: .155555755, w: -.124223948}
        outSlope: {x: 0, y: 0, z: .155555755, w: -.124223948}
        tangentMode: 4
      - time: .866666496
        value: {x: 0, y: 0, z: .626611412, w: .779331863}
        inSlope: {x: 0, y: 0, z: .0960803926, w: -.0771600753}
        outSlope: {x: 0, y: 0, z: .0960803926, w: -.0771600753}
        tangentMode: 1065181314
      - time: .883333147
        value: {x: 0, y: 0, z: .627751589, w: .778413713}
        inSlope: {x: 0, y: 0, z: .0447679013, w: -.0360668041}
        outSlope: {x: 0, y: 0, z: .0447679013, w: -.0360668041}
        tangentMode: -1084651645
      - time: .899999797
        value: {x: 0, y: 0, z: .628103673, w: .778129637}
        inSlope: {x: 0, y: 0, z: .00144303031, w: -.00116229197}
        outSlope: {x: 0, y: 0, z: .00144303031, w: -.00116229197}
        tangentMode: 0
      - time: .916666448
        value: {x: 0, y: 0, z: .62779969, w: .77837497}
        inSlope: {x: 0, y: 0, z: -.0340068676, w: .0274104141}
        outSlope: {x: 0, y: 0, z: -.0340068676, w: .0274104141}
        tangentMode: -1094937454
      - time: .933333099
        value: {x: 0, y: 0, z: .626970112, w: .779043317}
        inSlope: {x: 0, y: 0, z: -.0616425872, w: .0495833606}
        outSlope: {x: 0, y: 0, z: -.0616425872, w: .0495833606}
        tangentMode: 0
      - time: .94999975
        value: {x: 0, y: 0, z: .625744939, w: .780027747}
        inSlope: {x: 0, y: 0, z: -.0814730674, w: .0653350949}
        outSlope: {x: 0, y: 0, z: -.0814730674, w: .0653350949}
        tangentMode: 0
      - time: .9666664
        value: {x: 0, y: 0, z: .624254346, w: .781221151}
        inSlope: {x: 0, y: 0, z: -.0934840143, w: .0746888667}
        outSlope: {x: 0, y: 0, z: -.0934840143, w: .0746888667}
        tangentMode: 6
      - time: .983333051
        value: {x: 0, y: 0, z: .622628808, w: .782517374}
        inSlope: {x: 0, y: 0, z: -.0976414382, w: .0776911527}
        outSlope: {x: 0, y: 0, z: -.0976414382, w: .0776911527}
        tangentMode: 0
      - time: .999999702
        value: {x: 0, y: 0, z: .620999634, w: .783810854}
        inSlope: {x: 0, y: 0, z: -.093889758, w: .0743990541}
        outSlope: {x: 0, y: 0, z: -.093889758, w: .0743990541}
        tangentMode: 4
      - time: 1.01666641
        value: {x: 0, y: 0, z: .619499147, w: .784997344}
        inSlope: {x: 0, y: 0, z: -.0821810141, w: .0648772046}
        outSlope: {x: 0, y: 0, z: -.0821810141, w: .0648772046}
        tangentMode: 1062612230
      - time: 1.03333306
        value: {x: 0, y: 0, z: .618260264, w: .78597343}
        inSlope: {x: 0, y: 0, z: -.0624830127, w: .0491756648}
        outSlope: {x: 0, y: 0, z: -.0624830127, w: .0491756648}
        tangentMode: 4
      - time: 1.04999971
        value: {x: 0, y: 0, z: .617416382, w: .786636531}
        inSlope: {x: 0, y: 0, z: -.0347757675, w: .0273138545}
        outSlope: {x: 0, y: 0, z: -.0347757675, w: .0273138545}
        tangentMode: 1064856809
      - time: 1.06666636
        value: {x: 0, y: 0, z: .617101073, w: .786883891}
        inSlope: {x: 0, y: 0, z: -.00946105458, w: .0074225734}
        outSlope: {x: 0, y: 0, z: -.00946105458, w: .0074225734}
        tangentMode: -1085785681
      - time: 1.08333302
        value: {x: 0, y: 0, z: .617101014, w: .78688395}
        inSlope: {x: 0, y: 0, z: -1.78814105e-06, w: 1.78814105e-06}
        outSlope: {x: 0, y: 0, z: -1.78814105e-06, w: 1.78814105e-06}
        tangentMode: 0
      - time: 1.09999967
        value: {x: 0, y: 0, z: .617101014, w: .78688395}
        inSlope: {x: 0, y: 0, z: 0, w: 0}
        outSlope: {x: 0, y: 0, z: 0, w: 0}
        tangentMode: -1096046275
      - time: 1.11666632
        value: {x: 0, y: 0, z: .617101014, w: .78688395}
        inSlope: {x: 0, y: 0, z: 0, w: 0}
        outSlope: {x: 0, y: 0, z: 0, w: 0}
        tangentMode: 0
      - time: 1.13333297
        value: {x: 0, y: 0, z: .617101014, w: .78688395}
        inSlope: {x: 0, y: 0, z: 0, w: 0}
        outSlope: {x: 0, y: 0, z: 0, w: 0}
        tangentMode: 0
      - time: 1.14999962
        value: {x: 0, y: 0, z: .617101014, w: .78688395}
        inSlope: {x: 0, y: 0, z: 0, w: 0}
        outSlope: {x: 0, y: 0, z: 0, w: 0}
        tangentMode: 6
      - time: 1.16666627
        value: {x: 0, y: 0, z: .617101014, w: .78688395}
        inSlope: {x: 0, y: 0, z: 0, w: 0}
        outSlope: {x: 0, y: 0, z: 0, w: 0}
        tangentMode: 0
      - time: 1.18333292
        value: {x: 0, y: 0, z: .617101014, w: .78688395}
        inSlope: {x: 0, y: 0, z: 0, w: 0}
        outSlope: {x: 0, y: 0, z: 0, w: 0}
        tangentMode: 4
      - time: 1.19999957
        value: {x: 0, y: 0, z: .617101014, w: .78688395}
        inSlope: {x: 0, y: 0, z: 0, w: 0}
        outSlope: {x: 0, y: 0, z: 0, w: 0}
        tangentMode: 1061898869
      - time: 1.21666622
        value: {x: 0, y: 0, z: .617101014, w: .78688395}
        inSlope: {x: 0, y: 0, z: 0, w: 0}
        outSlope: {x: 0, y: 0, z: 0, w: 0}
        tangentMode: 4
      - time: 1.23333287
        value: {x: 0, y: 0, z: .617101014, w: .78688395}
        inSlope: {x: 0, y: 0, z: 0, w: 0}
        outSlope: {x: 0, y: 0, z: 0, w: 0}
        tangentMode: 1064377480
      - time: 1.24999952
        value: {x: 0, y: 0, z: .617101014, w: .78688395}
        inSlope: {x: 0, y: 0, z: 0, w: 0}
        outSlope: {x: 0, y: 0, z: 0, w: 0}
        tangentMode: 0
      - time: 1.26666617
        value: {x: 0, y: 0, z: .617101014, w: .78688395}
        inSlope: {x: 0, y: 0, z: 0, w: 0}
        outSlope: {x: 0, y: 0, z: 0, w: 0}
        tangentMode: 0
      - time: 1.28333282
        value: {x: 0, y: 0, z: .617101014, w: .78688395}
        inSlope: {x: 0, y: 0, z: 0, w: 0}
        outSlope: {x: 0, y: 0, z: 0, w: 0}
        tangentMode: 1065353216
      - time: 1.29999948
        value: {x: 0, y: 0, z: .617101014, w: .78688395}
        inSlope: {x: 0, y: 0, z: 0, w: 0}
        outSlope: {x: 0, y: 0, z: 0, w: 0}
        tangentMode: 1065353216
      - time: 1.31666613
        value: {x: 0, y: 0, z: .617101014, w: .78688395}
        inSlope: {x: 0, y: 0, z: 0, w: 0}
        outSlope: {x: 0, y: 0, z: 0, w: 0}
        tangentMode: 0
      - time: 1.33333278
        value: {x: 0, y: 0, z: .617101014, w: .78688395}
        inSlope: {x: 0, y: 0, z: 0, w: 0}
        outSlope: {x: 0, y: 0, z: 0, w: 0}
        tangentMode: 0
      - time: 1.34999943
        value: {x: 0, y: 0, z: .617101014, w: .78688395}
        inSlope: {x: 0, y: 0, z: 0, w: 0}
        outSlope: {x: 0, y: 0, z: 0, w: 0}
        tangentMode: 0
      - time: 1.36666608
        value: {x: 0, y: 0, z: .617101014, w: .78688395}
        inSlope: {x: 0, y: 0, z: 0, w: 0}
        outSlope: {x: 0, y: 0, z: 0, w: 0}
        tangentMode: 0
      - time: 1.38333273
        value: {x: 0, y: 0, z: .617101014, w: .78688395}
        inSlope: {x: 0, y: 0, z: 0, w: 0}
        outSlope: {x: 0, y: 0, z: 0, w: 0}
        tangentMode: 0
      - time: 1.39999938
        value: {x: 0, y: 0, z: .617101014, w: .78688395}
        inSlope: {x: 0, y: 0, z: 0, w: 0}
        outSlope: {x: 0, y: 0, z: 0, w: 0}
        tangentMode: 1065353216
      - time: 1.41666603
        value: {x: 0, y: 0, z: .617101014, w: .78688395}
        inSlope: {x: 0, y: 0, z: 0, w: 0}
        outSlope: {x: 0, y: 0, z: 0, w: 0}
        tangentMode: 0
      - time: 1.43333268
        value: {x: 0, y: 0, z: .617101014, w: .78688395}
        inSlope: {x: 0, y: 0, z: 0, w: 0}
        outSlope: {x: 0, y: 0, z: 0, w: 0}
        tangentMode: 0
      - time: 1.44999933
        value: {x: 0, y: 0, z: .617101014, w: .78688395}
        inSlope: {x: 0, y: 0, z: 0, w: 0}
        outSlope: {x: 0, y: 0, z: 0, w: 0}
        tangentMode: 0
      - time: 1.46666598
        value: {x: 0, y: 0, z: .617101014, w: .78688395}
        inSlope: {x: 0, y: 0, z: 0, w: 0}
        outSlope: {x: 0, y: 0, z: 0, w: 0}
        tangentMode: 0
      - time: 1.48333335
        value: {x: 0, y: 0, z: .617101014, w: .78688395}
        inSlope: {x: 0, y: 0, z: 0, w: 0}
        outSlope: {x: 0, y: 0, z: 0, w: 0}
        tangentMode: 0
      m_PreInfinity: 2
      m_PostInfinity: 2
    path: 2D/HeadFlash
  m_CompressedRotationCurves: []
  m_PositionCurves:
  - curve:
      serializedVersion: 2
      m_Curve:
      - time: 0
        value: {x: -0, y: 0, z: 0}
        inSlope: {x: 0, y: 0, z: 0}
        outSlope: {x: 0, y: 0, z: 0}
        tangentMode: 1065353216
      m_PreInfinity: 2
      m_PostInfinity: 2
    path: 2D/HeadStars
  - curve:
      serializedVersion: 2
      m_Curve:
      - time: 0
        value: {x: 0, y: 0, z: -.270000458}
        inSlope: {x: 0, y: -.299999714, z: 0}
        outSlope: {x: 0, y: -.299999714, z: 0}
        tangentMode: 96
      - time: .5
        value: {x: 0, y: -.149999857, z: -.270000458}
        inSlope: {x: 0, y: -.355263203, z: 0}
        outSlope: {x: 0, y: -.355263203, z: 0}
        tangentMode: 50331648
      - time: .816666663
        value: {x: 0, y: -.279999971, z: -.270000458}
        inSlope: {x: 0, y: -.205263346, z: 0}
        outSlope: {x: 0, y: -.205263346, z: 0}
        tangentMode: 0
      - time: 1.06683338
        value: {x: 0, y: -.279999971, z: -.270000458}
        inSlope: {x: 0, y: 0, z: 0}
        outSlope: {x: 0, y: 0, z: 0}
        tangentMode: 15
      - time: 1.48333335
        value: {x: 0, y: -.279999971, z: -.270000458}
        inSlope: {x: 0, y: 0, z: 0}
        outSlope: {x: 0, y: 0, z: 0}
        tangentMode: 15
      m_PreInfinity: 2
      m_PostInfinity: 2
    path: 2D/HeadFlash
  m_ScaleCurves: []
  m_FloatCurves:
  - curve:
      serializedVersion: 2
      m_Curve:
      - time: 0
        value: 1
        inSlope: Infinity
        outSlope: Infinity
        tangentMode: 31
      m_PreInfinity: 2
      m_PostInfinity: 2
    attribute: m_IsActive
    path: 2D/HeadStars
    classID: 1
    script: {fileID: 0}
  m_PPtrCurves: []
  m_SampleRate: 60
  m_WrapMode: 0
  m_Bounds:
    m_Center: {x: 0, y: 0, z: 0}
    m_Extent: {x: 0, y: 0, z: 0}
  m_ClipBindingConstant:
    genericBindings:
    - path: 2965954051
      attribute: 1
      script: {fileID: 0}
      classID: 4
      customType: 0
      isPPtrCurve: 0
    - path: 2965954051
      attribute: 2
      script: {fileID: 0}
      classID: 4
      customType: 0
      isPPtrCurve: 0
    - path: 505102636
      attribute: 2086281974
      script: {fileID: 0}
      classID: 1
      customType: 0
      isPPtrCurve: 0
    - path: 505102636
      attribute: 1
      script: {fileID: 0}
      classID: 4
      customType: 0
      isPPtrCurve: 0
    pptrCurveMapping: []
  m_AnimationClipSettings:
    serializedVersion: 2
    m_StartTime: 0
    m_StopTime: 1.48333335
    m_OrientationOffsetY: 0
    m_Level: 0
    m_CycleOffset: 0
    m_LoopTime: 0
    m_LoopBlend: 0
    m_LoopBlendOrientation: 0
    m_LoopBlendPositionY: 0
    m_LoopBlendPositionXZ: 0
    m_KeepOriginalOrientation: 0
    m_KeepOriginalPositionY: 1
    m_KeepOriginalPositionXZ: 0
    m_HeightFromFeet: 0
    m_Mirror: 0
  m_EditorCurves:
  - curve:
      serializedVersion: 2
      m_Curve:
      - time: 0
        value: 1
        inSlope: Infinity
        outSlope: Infinity
        tangentMode: 31
      m_PreInfinity: 2
      m_PostInfinity: 2
    attribute: m_IsActive
    path: 2D/HeadStars
    classID: 1
    script: {fileID: 0}
  - curve:
      serializedVersion: 2
      m_Curve:
      - time: 0
        value: 0
        inSlope: 0
        outSlope: 0
        tangentMode: 10
      m_PreInfinity: 2
      m_PostInfinity: 2
    attribute: m_LocalPosition.z
    path: 2D/HeadStars
    classID: 4
    script: {fileID: 0}
  - curve:
      serializedVersion: 2
      m_Curve:
      - time: 0
        value: 0
        inSlope: 0
        outSlope: 0
        tangentMode: 10
      m_PreInfinity: 2
      m_PostInfinity: 2
    attribute: m_LocalPosition.y
    path: 2D/HeadStars
    classID: 4
    script: {fileID: 0}
  - curve:
      serializedVersion: 2
      m_Curve:
      - time: 0
        value: -0
        inSlope: 0
        outSlope: 0
        tangentMode: 10
      m_PreInfinity: 2
      m_PostInfinity: 2
    attribute: m_LocalPosition.x
    path: 2D/HeadStars
    classID: 4
    script: {fileID: 0}
  - curve:
      serializedVersion: 2
      m_Curve:
      - time: 0
        value: -.270000458
        inSlope: 0
        outSlope: 0
        tangentMode: 10
      - time: .5
        value: -.270000458
        inSlope: 0
        outSlope: 0
        tangentMode: 10
      - time: .816666663
        value: -.270000458
        inSlope: 0
        outSlope: 0
        tangentMode: 10
      - time: 1.06683338
        value: -.270000458
        inSlope: 0
        outSlope: 0
        tangentMode: 10
      - time: 1.48333335
        value: -.270000458
        inSlope: 0
        outSlope: 0
        tangentMode: 10
      m_PreInfinity: 2
      m_PostInfinity: 2
    attribute: m_LocalPosition.z
    path: 2D/HeadFlash
    classID: 4
    script: {fileID: 0}
  - curve:
      serializedVersion: 2
      m_Curve:
      - time: 0
        value: 0
        inSlope: -.299999714
        outSlope: -.299999714
        tangentMode: 10
      - time: .5
        value: -.149999857
        inSlope: -.355263203
        outSlope: -.355263203
        tangentMode: 10
      - time: .816666663
        value: -.279999971
        inSlope: -.205263346
        outSlope: -.205263346
        tangentMode: 10
      - time: 1.06683338
        value: -.279999971
        inSlope: 0
        outSlope: 0
        tangentMode: 10
      - time: 1.48333335
        value: -.279999971
        inSlope: 0
        outSlope: 0
        tangentMode: 10
      m_PreInfinity: 2
      m_PostInfinity: 2
    attribute: m_LocalPosition.y
    path: 2D/HeadFlash
    classID: 4
    script: {fileID: 0}
  - curve:
      serializedVersion: 2
      m_Curve:
      - time: 0
        value: 0
        inSlope: 0
        outSlope: 0
        tangentMode: 10
      - time: .5
        value: 0
        inSlope: 0
        outSlope: 0
        tangentMode: 10
      - time: .816666663
        value: 0
        inSlope: 0
        outSlope: 0
        tangentMode: 10
      - time: 1.06683338
        value: 0
        inSlope: 0
        outSlope: 0
        tangentMode: 10
      - time: 1.48333335
        value: 0
        inSlope: 0
        outSlope: 0
        tangentMode: 10
      m_PreInfinity: 2
      m_PostInfinity: 2
    attribute: m_LocalPosition.x
    path: 2D/HeadFlash
    classID: 4
    script: {fileID: 0}
  - curve:
      serializedVersion: 2
      m_Curve:
      - time: 0
        value: 0
        inSlope: 0
        outSlope: 0
        tangentMode: 0
      - time: .0166666675
        value: 0
        inSlope: 0
        outSlope: 0
        tangentMode: 0
      - time: .0333333351
        value: 0
        inSlope: 0
        outSlope: 0
        tangentMode: 0
      - time: .0500000045
        value: 0
        inSlope: 0
        outSlope: 0
        tangentMode: 0
      - time: .0666666701
        value: 0
        inSlope: 0
        outSlope: 0
        tangentMode: 0
      - time: .0833333358
        value: 0
        inSlope: 0
        outSlope: 0
        tangentMode: 0
      - time: .100000001
        value: 0
        inSlope: 0
        outSlope: 0
        tangentMode: 0
      - time: .116666667
        value: 0
        inSlope: 0
        outSlope: 0
        tangentMode: 0
      - time: .13333334
        value: 0
        inSlope: 0
        outSlope: 0
        tangentMode: 0
      - time: .150000006
        value: 0
        inSlope: 0
        outSlope: 0
        tangentMode: 0
      - time: .166666672
        value: 0
        inSlope: 0
        outSlope: 0
        tangentMode: 0
      - time: .183333337
        value: 0
        inSlope: 0
        outSlope: 0
        tangentMode: 0
      - time: .200000003
        value: 0
        inSlope: 0
        outSlope: 0
        tangentMode: 0
      - time: .216666669
        value: 0
        inSlope: 0
        outSlope: 0
        tangentMode: 0
      - time: .233333334
        value: 0
        inSlope: 0
        outSlope: 0
        tangentMode: 0
      - time: .25
        value: 0
        inSlope: 0
        outSlope: 0
        tangentMode: 0
      - time: .266666681
        value: 0
        inSlope: 0
        outSlope: 0
        tangentMode: 0
      - time: .283333361
        value: 0
        inSlope: 0
        outSlope: 0
        tangentMode: 0
      - time: .300000042
        value: 0
        inSlope: 0
        outSlope: 0
        tangentMode: 0
      - time: .316666722
        value: 0
        inSlope: 0
        outSlope: 0
        tangentMode: 0
      - time: .333333403
        value: 0
        inSlope: 0
        outSlope: 0
        tangentMode: 0
      - time: .350000083
        value: 0
        inSlope: 0
        outSlope: 0
        tangentMode: 0
      - time: .366666764
        value: 0
        inSlope: 0
        outSlope: 0
        tangentMode: 0
      - time: .383333445
        value: 0
        inSlope: 0
        outSlope: 0
        tangentMode: 0
      - time: .400000125
        value: 0
        inSlope: 0
        outSlope: 0
        tangentMode: 0
      - time: .416666806
        value: 0
        inSlope: 0
        outSlope: 0
        tangentMode: 0
      - time: .433333486
        value: 0
        inSlope: 0
        outSlope: 0
        tangentMode: 0
      - time: .450000167
        value: 0
        inSlope: 0
        outSlope: 0
        tangentMode: 0
      - time: .466666847
        value: 0
        inSlope: 0
        outSlope: 0
        tangentMode: 0
      - time: .483333528
        value: 0
        inSlope: 0
        outSlope: 0
        tangentMode: 0
      - time: .500000179
        value: 0
        inSlope: 0
        outSlope: 0
        tangentMode: 0
      - time: .51666683
        value: 0
        inSlope: 0
        outSlope: 0
        tangentMode: 0
      - time: .53333348
        value: 0
        inSlope: 0
        outSlope: 0
        tangentMode: 0
      - time: .550000131
        value: 0
        inSlope: 0
        outSlope: 0
        tangentMode: 0
      - time: .566666782
        value: 0
        inSlope: 0
        outSlope: 0
        tangentMode: 0
      - time: .583333433
        value: 0
        inSlope: 0
        outSlope: 0
        tangentMode: 0
      - time: .600000083
        value: 0
        inSlope: 0
        outSlope: 0
        tangentMode: 0
      - time: .616666734
        value: 0
        inSlope: 0
        outSlope: 0
        tangentMode: 0
      - time: .633333385
        value: 0
        inSlope: 0
        outSlope: 0
        tangentMode: 0
      - time: .650000036
        value: 0
        inSlope: 0
        outSlope: 0
        tangentMode: 0
      - time: .666666687
        value: 0
        inSlope: 0
        outSlope: 0
        tangentMode: 0
      - time: .683333337
        value: 0
        inSlope: 0
        outSlope: 0
        tangentMode: 0
      - time: .699999988
        value: 0
        inSlope: 0
        outSlope: 0
        tangentMode: 0
      - time: .716666639
        value: 0
        inSlope: 0
        outSlope: 0
        tangentMode: 0
      - time: .73333329
        value: 0
        inSlope: 0
        outSlope: 0
        tangentMode: 0
      - time: .74999994
        value: 0
        inSlope: 0
        outSlope: 0
        tangentMode: 0
      - time: .766666591
        value: 0
        inSlope: 0
        outSlope: 0
        tangentMode: 0
      - time: .783333242
        value: 0
        inSlope: 0
        outSlope: 0
        tangentMode: 0
      - time: .799999893
        value: 0
        inSlope: 0
        outSlope: 0
        tangentMode: 0
      - time: .816666543
        value: 0
        inSlope: 0
        outSlope: 0
        tangentMode: 0
      - time: .833333194
        value: 0
        inSlope: 0
        outSlope: 0
        tangentMode: 0
      - time: .849999845
        value: 0
        inSlope: 0
        outSlope: 0
        tangentMode: 0
      - time: .866666496
        value: 0
        inSlope: 0
        outSlope: 0
        tangentMode: 0
      - time: .883333147
        value: 0
        inSlope: 0
        outSlope: 0
        tangentMode: 0
      - time: .899999797
        value: 0
        inSlope: 0
        outSlope: 0
        tangentMode: 0
      - time: .916666448
        value: 0
        inSlope: 0
        outSlope: 0
        tangentMode: 0
      - time: .933333099
        value: 0
        inSlope: 0
        outSlope: 0
        tangentMode: 0
      - time: .94999975
        value: 0
        inSlope: 0
        outSlope: 0
        tangentMode: 0
      - time: .9666664
        value: 0
        inSlope: 0
        outSlope: 0
        tangentMode: 0
      - time: .983333051
        value: 0
        inSlope: 0
        outSlope: 0
        tangentMode: 0
      - time: .999999702
        value: 0
        inSlope: 0
        outSlope: 0
        tangentMode: 0
      - time: 1.01666641
        value: 0
        inSlope: 0
        outSlope: 0
        tangentMode: 0
      - time: 1.03333306
        value: 0
        inSlope: 0
        outSlope: 0
        tangentMode: 0
      - time: 1.04999971
        value: 0
        inSlope: 0
        outSlope: 0
        tangentMode: 0
      - time: 1.06666636
        value: 0
        inSlope: 0
        outSlope: 0
        tangentMode: 0
      - time: 1.08333302
        value: 0
        inSlope: 0
        outSlope: 0
        tangentMode: 0
      - time: 1.09999967
        value: 0
        inSlope: 0
        outSlope: 0
        tangentMode: 0
      - time: 1.11666632
        value: 0
        inSlope: 0
        outSlope: 0
        tangentMode: 0
      - time: 1.13333297
        value: 0
        inSlope: 0
        outSlope: 0
        tangentMode: 0
      - time: 1.14999962
        value: 0
        inSlope: 0
        outSlope: 0
        tangentMode: 0
      - time: 1.16666627
        value: 0
        inSlope: 0
        outSlope: 0
        tangentMode: 0
      - time: 1.18333292
        value: 0
        inSlope: 0
        outSlope: 0
        tangentMode: 0
      - time: 1.19999957
        value: 0
        inSlope: 0
        outSlope: 0
        tangentMode: 0
      - time: 1.21666622
        value: 0
        inSlope: 0
        outSlope: 0
        tangentMode: 0
      - time: 1.23333287
        value: 0
        inSlope: 0
        outSlope: 0
        tangentMode: 0
      - time: 1.24999952
        value: 0
        inSlope: 0
        outSlope: 0
        tangentMode: 0
      - time: 1.26666617
        value: 0
        inSlope: 0
        outSlope: 0
        tangentMode: 0
      - time: 1.28333282
        value: 0
        inSlope: 0
        outSlope: 0
        tangentMode: 0
      - time: 1.29999948
        value: 0
        inSlope: 0
        outSlope: 0
        tangentMode: 0
      - time: 1.31666613
        value: 0
        inSlope: 0
        outSlope: 0
        tangentMode: 0
      - time: 1.33333278
        value: 0
        inSlope: 0
        outSlope: 0
        tangentMode: 0
      - time: 1.34999943
        value: 0
        inSlope: 0
        outSlope: 0
        tangentMode: 0
      - time: 1.36666608
        value: 0
        inSlope: 0
        outSlope: 0
        tangentMode: 0
      - time: 1.38333273
        value: 0
        inSlope: 0
        outSlope: 0
        tangentMode: 0
      - time: 1.39999938
        value: 0
        inSlope: 0
        outSlope: 0
        tangentMode: 0
      - time: 1.41666603
        value: 0
        inSlope: 0
        outSlope: 0
        tangentMode: 0
      - time: 1.43333268
        value: 0
        inSlope: 0
        outSlope: 0
        tangentMode: 0
      - time: 1.44999933
        value: 0
        inSlope: 0
        outSlope: 0
        tangentMode: 0
      - time: 1.46666598
        value: 0
        inSlope: 0
        outSlope: 0
        tangentMode: 0
      - time: 1.48333335
        value: 0
        inSlope: 0
        outSlope: 0
        tangentMode: 0
      m_PreInfinity: 2
      m_PostInfinity: 2
    attribute: m_LocalRotation.x
    path: 2D/HeadFlash
    classID: 4
    script: {fileID: 0}
  - curve:
      serializedVersion: 2
      m_Curve:
      - time: 0
        value: 0
        inSlope: 0
        outSlope: 0
        tangentMode: 0
      - time: .0166666675
        value: 0
        inSlope: 0
        outSlope: 0
        tangentMode: 0
      - time: .0333333351
        value: 0
        inSlope: 0
        outSlope: 0
        tangentMode: 0
      - time: .0500000045
        value: 0
        inSlope: 0
        outSlope: 0
        tangentMode: 0
      - time: .0666666701
        value: 0
        inSlope: 0
        outSlope: 0
        tangentMode: 0
      - time: .0833333358
        value: 0
        inSlope: 0
        outSlope: 0
        tangentMode: 0
      - time: .100000001
        value: 0
        inSlope: 0
        outSlope: 0
        tangentMode: 0
      - time: .116666667
        value: 0
        inSlope: 0
        outSlope: 0
        tangentMode: 0
      - time: .13333334
        value: 0
        inSlope: 0
        outSlope: 0
        tangentMode: 0
      - time: .150000006
        value: 0
        inSlope: 0
        outSlope: 0
        tangentMode: 0
      - time: .166666672
        value: 0
        inSlope: 0
        outSlope: 0
        tangentMode: 0
      - time: .183333337
        value: 0
        inSlope: 0
        outSlope: 0
        tangentMode: 0
      - time: .200000003
        value: 0
        inSlope: 0
        outSlope: 0
        tangentMode: 0
      - time: .216666669
        value: 0
        inSlope: 0
        outSlope: 0
        tangentMode: 0
      - time: .233333334
        value: 0
        inSlope: 0
        outSlope: 0
        tangentMode: 0
      - time: .25
        value: 0
        inSlope: 0
        outSlope: 0
        tangentMode: 0
      - time: .266666681
        value: 0
        inSlope: 0
        outSlope: 0
        tangentMode: 0
      - time: .283333361
        value: 0
        inSlope: 0
        outSlope: 0
        tangentMode: 0
      - time: .300000042
        value: 0
        inSlope: 0
        outSlope: 0
        tangentMode: 0
      - time: .316666722
        value: 0
        inSlope: 0
        outSlope: 0
        tangentMode: 0
      - time: .333333403
        value: 0
        inSlope: 0
        outSlope: 0
        tangentMode: 0
      - time: .350000083
        value: 0
        inSlope: 0
        outSlope: 0
        tangentMode: 0
      - time: .366666764
        value: 0
        inSlope: 0
        outSlope: 0
        tangentMode: 0
      - time: .383333445
        value: 0
        inSlope: 0
        outSlope: 0
        tangentMode: 0
      - time: .400000125
        value: 0
        inSlope: 0
        outSlope: 0
        tangentMode: 0
      - time: .416666806
        value: 0
        inSlope: 0
        outSlope: 0
        tangentMode: 0
      - time: .433333486
        value: 0
        inSlope: 0
        outSlope: 0
        tangentMode: 0
      - time: .450000167
        value: 0
        inSlope: 0
        outSlope: 0
        tangentMode: 0
      - time: .466666847
        value: 0
        inSlope: 0
        outSlope: 0
        tangentMode: 0
      - time: .483333528
        value: 0
        inSlope: 0
        outSlope: 0
        tangentMode: 0
      - time: .500000179
        value: 0
        inSlope: 0
        outSlope: 0
        tangentMode: 0
      - time: .51666683
        value: 0
        inSlope: 0
        outSlope: 0
        tangentMode: 0
      - time: .53333348
        value: 0
        inSlope: 0
        outSlope: 0
        tangentMode: 0
      - time: .550000131
        value: 0
        inSlope: 0
        outSlope: 0
        tangentMode: 0
      - time: .566666782
        value: 0
        inSlope: 0
        outSlope: 0
        tangentMode: 0
      - time: .583333433
        value: 0
        inSlope: 0
        outSlope: 0
        tangentMode: 0
      - time: .600000083
        value: 0
        inSlope: 0
        outSlope: 0
        tangentMode: 0
      - time: .616666734
        value: 0
        inSlope: 0
        outSlope: 0
        tangentMode: 0
      - time: .633333385
        value: 0
        inSlope: 0
        outSlope: 0
        tangentMode: 0
      - time: .650000036
        value: 0
        inSlope: 0
        outSlope: 0
        tangentMode: 0
      - time: .666666687
        value: 0
        inSlope: 0
        outSlope: 0
        tangentMode: 0
      - time: .683333337
        value: 0
        inSlope: 0
        outSlope: 0
        tangentMode: 0
      - time: .699999988
        value: 0
        inSlope: 0
        outSlope: 0
        tangentMode: 0
      - time: .716666639
        value: 0
        inSlope: 0
        outSlope: 0
        tangentMode: 0
      - time: .73333329
        value: 0
        inSlope: 0
        outSlope: 0
        tangentMode: 0
      - time: .74999994
        value: 0
        inSlope: 0
        outSlope: 0
        tangentMode: 0
      - time: .766666591
        value: 0
        inSlope: 0
        outSlope: 0
        tangentMode: 0
      - time: .783333242
        value: 0
        inSlope: 0
        outSlope: 0
        tangentMode: 0
      - time: .799999893
        value: 0
        inSlope: 0
        outSlope: 0
        tangentMode: 0
      - time: .816666543
        value: 0
        inSlope: 0
        outSlope: 0
        tangentMode: 0
      - time: .833333194
        value: 0
        inSlope: 0
        outSlope: 0
        tangentMode: 0
      - time: .849999845
        value: 0
        inSlope: 0
        outSlope: 0
        tangentMode: 0
      - time: .866666496
        value: 0
        inSlope: 0
        outSlope: 0
        tangentMode: 0
      - time: .883333147
        value: 0
        inSlope: 0
        outSlope: 0
        tangentMode: 0
      - time: .899999797
        value: 0
        inSlope: 0
        outSlope: 0
        tangentMode: 0
      - time: .916666448
        value: 0
        inSlope: 0
        outSlope: 0
        tangentMode: 0
      - time: .933333099
        value: 0
        inSlope: 0
        outSlope: 0
        tangentMode: 0
      - time: .94999975
        value: 0
        inSlope: 0
        outSlope: 0
        tangentMode: 0
      - time: .9666664
        value: 0
        inSlope: 0
        outSlope: 0
        tangentMode: 0
      - time: .983333051
        value: 0
        inSlope: 0
        outSlope: 0
        tangentMode: 0
      - time: .999999702
        value: 0
        inSlope: 0
        outSlope: 0
        tangentMode: 0
      - time: 1.01666641
        value: 0
        inSlope: 0
        outSlope: 0
        tangentMode: 0
      - time: 1.03333306
        value: 0
        inSlope: 0
        outSlope: 0
        tangentMode: 0
      - time: 1.04999971
        value: 0
        inSlope: 0
        outSlope: 0
        tangentMode: 0
      - time: 1.06666636
        value: 0
        inSlope: 0
        outSlope: 0
        tangentMode: 0
      - time: 1.08333302
        value: 0
        inSlope: 0
        outSlope: 0
        tangentMode: 0
      - time: 1.09999967
        value: 0
        inSlope: 0
        outSlope: 0
        tangentMode: 0
      - time: 1.11666632
        value: 0
        inSlope: 0
        outSlope: 0
        tangentMode: 0
      - time: 1.13333297
        value: 0
        inSlope: 0
        outSlope: 0
        tangentMode: 0
      - time: 1.14999962
        value: 0
        inSlope: 0
        outSlope: 0
        tangentMode: 0
      - time: 1.16666627
        value: 0
        inSlope: 0
        outSlope: 0
        tangentMode: 0
      - time: 1.18333292
        value: 0
        inSlope: 0
        outSlope: 0
        tangentMode: 0
      - time: 1.19999957
        value: 0
        inSlope: 0
        outSlope: 0
        tangentMode: 0
      - time: 1.21666622
        value: 0
        inSlope: 0
        outSlope: 0
        tangentMode: 0
      - time: 1.23333287
        value: 0
        inSlope: 0
        outSlope: 0
        tangentMode: 0
      - time: 1.24999952
        value: 0
        inSlope: 0
        outSlope: 0
        tangentMode: 0
      - time: 1.26666617
        value: 0
        inSlope: 0
        outSlope: 0
        tangentMode: 0
      - time: 1.28333282
        value: 0
        inSlope: 0
        outSlope: 0
        tangentMode: 0
      - time: 1.29999948
        value: 0
        inSlope: 0
        outSlope: 0
        tangentMode: 0
      - time: 1.31666613
        value: 0
        inSlope: 0
        outSlope: 0
        tangentMode: 0
      - time: 1.33333278
        value: 0
        inSlope: 0
        outSlope: 0
        tangentMode: 0
      - time: 1.34999943
        value: 0
        inSlope: 0
        outSlope: 0
        tangentMode: 0
      - time: 1.36666608
        value: 0
        inSlope: 0
        outSlope: 0
        tangentMode: 0
      - time: 1.38333273
        value: 0
        inSlope: 0
        outSlope: 0
        tangentMode: 0
      - time: 1.39999938
        value: 0
        inSlope: 0
        outSlope: 0
        tangentMode: 0
      - time: 1.41666603
        value: 0
        inSlope: 0
        outSlope: 0
        tangentMode: 0
      - time: 1.43333268
        value: 0
        inSlope: 0
        outSlope: 0
        tangentMode: 0
      - time: 1.44999933
        value: 0
        inSlope: 0
        outSlope: 0
        tangentMode: 0
      - time: 1.46666598
        value: 0
        inSlope: 0
        outSlope: 0
        tangentMode: 0
      - time: 1.48333335
        value: 0
        inSlope: 0
        outSlope: 0
        tangentMode: 0
      m_PreInfinity: 2
      m_PostInfinity: 2
    attribute: m_LocalRotation.y
    path: 2D/HeadFlash
    classID: 4
    script: {fileID: 0}
  - curve:
      serializedVersion: 2
      m_Curve:
      - time: 0
        value: 0
        inSlope: .850989163
        outSlope: .850989163
        tangentMode: 0
      - time: .0166666675
        value: .0141831534
        inSlope: .852264941
        outSlope: .852264941
        tangentMode: 0
      - time: .0333333351
        value: .0284088328
        inSlope: .854577601
        outSlope: .854577601
        tangentMode: 0
      - time: .0500000045
        value: .0426690765
        inSlope: .856411219
        outSlope: .856411219
        tangentMode: 0
      - time: .0666666701
        value: .056955874
        inSlope: .857763886
        outSlope: .857763886
        tangentMode: 0
      - time: .0833333358
        value: .0712612048
        inSlope: .858634591
        outSlope: .858634591
        tangentMode: 0
      - time: .100000001
        value: .085577026
        inSlope: .859021962
        outSlope: .859021962
        tangentMode: 0
      - time: .116666667
        value: .0998952687
        inSlope: .858925879
        outSlope: .858925879
        tangentMode: 0
      - time: .13333334
        value: .114207894
        inSlope: .858347416
        outSlope: .858347416
        tangentMode: 0
      - time: .150000006
        value: .128506854
        inSlope: .857287288
        outSlope: .857287288
        tangentMode: 0
      - time: .166666672
        value: .142784134
        inSlope: .855747223
        outSlope: .855747223
        tangentMode: 0
      - time: .183333337
        value: .15703176
        inSlope: .853730202
        outSlope: .853730202
        tangentMode: 0
      - time: .200000003
        value: .171241805
        inSlope: .851239324
        outSlope: .851239324
        tangentMode: 0
      - time: .216666669
        value: .185406402
        inSlope: .848279059
        outSlope: .848279059
        tangentMode: 0
      - time: .233333334
        value: .199517772
        inSlope: .84485209
        outSlope: .84485209
        tangentMode: 0
      - time: .25
        value: .213568136
        inSlope: .840964735
        outSlope: .840964735
        tangentMode: 0
      - time: .266666681
        value: .22754994
        inSlope: .836624503
        outSlope: .836624503
        tangentMode: 0
      - time: .283333361
        value: .241455644
        inSlope: .831833661
        outSlope: .831833661
        tangentMode: 0
      - time: .300000042
        value: .255277753
        inSlope: .826601565
        outSlope: .826601565
        tangentMode: 0
      - time: .316666722
        value: .269009054
        inSlope: .820935845
        outSlope: .820935845
        tangentMode: 0
      - time: .333333403
        value: .282642305
        inSlope: .814844608
        outSlope: .814844608
        tangentMode: 0
      - time: .350000083
        value: .296170563
        inSlope: .808337569
        outSlope: .808337569
        tangentMode: 0
      - time: .366666764
        value: .309586912
        inSlope: .801421046
        outSlope: .801421046
        tangentMode: 0
      - time: .383333445
        value: .322884619
        inSlope: .794104874
        outSlope: .794104874
        tangentMode: 0
      - time: .400000125
        value: .336057097
        inSlope: .78640157
        outSlope: .78640157
        tangentMode: 0
      - time: .416666806
        value: .349098027
        inSlope: .778320968
        outSlope: .778320968
        tangentMode: 0
      - time: .433333486
        value: .362001151
        inSlope: .76987201
        outSlope: .76987201
        tangentMode: 0
      - time: .450000167
        value: .374760449
        inSlope: .761069
        outSlope: .761069
        tangentMode: 0
      - time: .466666847
        value: .387370139
        inSlope: .751921773
        outSlope: .751921773
        tangentMode: 0
      - time: .483333528
        value: .39982453
        inSlope: .742441773
        outSlope: .742441773
        tangentMode: 0
      - time: .500000179
        value: .412118196
        inSlope: .740495145
        outSlope: .740495145
        tangentMode: 0
      - time: .51666683
        value: .424507678
        inSlope: .752164543
        outSlope: .752164543
        tangentMode: 0
      - time: .53333348
        value: .437190324
        inSlope: .766976595
        outSlope: .766976595
        tangentMode: 0
      - time: .550000131
        value: .45007354
        inSlope: .776286542
        outSlope: .776286542
        tangentMode: 0
      - time: .566666782
        value: .463066518
        inSlope: .78020972
        outSlope: .78020972
        tangentMode: 0
      - time: .583333433
        value: .476080507
        inSlope: .778881133
        outSlope: .778881133
        tangentMode: 0
      - time: .600000083
        value: .489029199
        inSlope: .772449195
        outSlope: .772449195
        tangentMode: 0
      - time: .616666734
        value: .50182879
        inSlope: .761073053
        outSlope: .761073053
        tangentMode: 0
      - time: .633333385
        value: .514398277
        inSlope: .744918108
        outSlope: .744918108
        tangentMode: 0
      - time: .650000036
        value: .526659369
        inSlope: .724163175
        outSlope: .724163175
        tangentMode: 0
      - time: .666666687
        value: .538537025
        inSlope: .698980749
        outSlope: .698980749
        tangentMode: 0
      - time: .683333337
        value: .549958706
        inSlope: .669547915
        outSlope: .669547915
        tangentMode: 0
      - time: .699999988
        value: .560855269
        inSlope: .63603282
        outSlope: .63603282
        tangentMode: 0
      - time: .716666639
        value: .57115978
        inSlope: .59859097
        outSlope: .59859097
        tangentMode: 0
      - time: .73333329
        value: .580808282
        inSlope: .557379663
        outSlope: .557379663
        tangentMode: 0
      - time: .74999994
        value: .589739084
        inSlope: .512508035
        outSlope: .512508035
        tangentMode: 0
      - time: .766666591
        value: .597891867
        inSlope: .464074463
        outSlope: .464074463
        tangentMode: 0
      - time: .783333242
        value: .605208218
        inSlope: .412159353
        outSlope: .412159353
        tangentMode: 0
      - time: .799999893
        value: .611630499
        inSlope: .356784225
        outSlope: .356784225
        tangentMode: 0
      - time: .816666543
        value: .617101014
        inSlope: .293872058
        outSlope: .293872058
        tangentMode: 0
      - time: .833333194
        value: .621426225
        inSlope: .22343716
        outSlope: .22343716
        tangentMode: 0
      - time: .849999845
        value: .624548912
        inSlope: .155555755
        outSlope: .155555755
        tangentMode: 0
      - time: .866666496
        value: .626611412
        inSlope: .0960803926
        outSlope: .0960803926
        tangentMode: 0
      - time: .883333147
        value: .627751589
        inSlope: .0447679013
        outSlope: .0447679013
        tangentMode: 0
      - time: .899999797
        value: .628103673
        inSlope: .00144303031
        outSlope: .00144303031
        tangentMode: 0
      - time: .916666448
        value: .62779969
        inSlope: -.0340068676
        outSlope: -.0340068676
        tangentMode: 0
      - time: .933333099
        value: .626970112
        inSlope: -.0616425872
        outSlope: -.0616425872
        tangentMode: 0
      - time: .94999975
        value: .625744939
        inSlope: -.0814730674
        outSlope: -.0814730674
        tangentMode: 0
      - time: .9666664
        value: .624254346
        inSlope: -.0934840143
        outSlope: -.0934840143
        tangentMode: 0
      - time: .983333051
        value: .622628808
        inSlope: -.0976414382
        outSlope: -.0976414382
        tangentMode: 0
      - time: .999999702
        value: .620999634
        inSlope: -.093889758
        outSlope: -.093889758
        tangentMode: 0
      - time: 1.01666641
        value: .619499147
        inSlope: -.0821810141
        outSlope: -.0821810141
        tangentMode: 0
      - time: 1.03333306
        value: .618260264
        inSlope: -.0624830127
        outSlope: -.0624830127
        tangentMode: 0
      - time: 1.04999971
        value: .617416382
        inSlope: -.0347757675
        outSlope: -.0347757675
        tangentMode: 0
      - time: 1.06666636
        value: .617101073
        inSlope: -.00946105458
        outSlope: -.00946105458
        tangentMode: 0
      - time: 1.08333302
        value: .617101014
        inSlope: -1.78814105e-06
        outSlope: -1.78814105e-06
        tangentMode: 0
      - time: 1.09999967
        value: .617101014
        inSlope: 0
        outSlope: 0
        tangentMode: 0
      - time: 1.11666632
        value: .617101014
        inSlope: 0
        outSlope: 0
        tangentMode: 0
      - time: 1.13333297
        value: .617101014
        inSlope: 0
        outSlope: 0
        tangentMode: 0
      - time: 1.14999962
        value: .617101014
        inSlope: 0
        outSlope: 0
        tangentMode: 0
      - time: 1.16666627
        value: .617101014
        inSlope: 0
        outSlope: 0
        tangentMode: 0
      - time: 1.18333292
        value: .617101014
        inSlope: 0
        outSlope: 0
        tangentMode: 0
      - time: 1.19999957
        value: .617101014
        inSlope: 0
        outSlope: 0
        tangentMode: 0
      - time: 1.21666622
        value: .617101014
        inSlope: 0
        outSlope: 0
        tangentMode: 0
      - time: 1.23333287
        value: .617101014
        inSlope: 0
        outSlope: 0
        tangentMode: 0
      - time: 1.24999952
        value: .617101014
        inSlope: 0
        outSlope: 0
        tangentMode: 0
      - time: 1.26666617
        value: .617101014
        inSlope: 0
        outSlope: 0
        tangentMode: 0
      - time: 1.28333282
        value: .617101014
        inSlope: 0
        outSlope: 0
        tangentMode: 0
      - time: 1.29999948
        value: .617101014
        inSlope: 0
        outSlope: 0
        tangentMode: 0
      - time: 1.31666613
        value: .617101014
        inSlope: 0
        outSlope: 0
        tangentMode: 0
      - time: 1.33333278
        value: .617101014
        inSlope: 0
        outSlope: 0
        tangentMode: 0
      - time: 1.34999943
        value: .617101014
        inSlope: 0
        outSlope: 0
        tangentMode: 0
      - time: 1.36666608
        value: .617101014
        inSlope: 0
        outSlope: 0
        tangentMode: 0
      - time: 1.38333273
        value: .617101014
        inSlope: 0
        outSlope: 0
        tangentMode: 0
      - time: 1.39999938
        value: .617101014
        inSlope: 0
        outSlope: 0
        tangentMode: 0
      - time: 1.41666603
        value: .617101014
        inSlope: 0
        outSlope: 0
        tangentMode: 0
      - time: 1.43333268
        value: .617101014
        inSlope: 0
        outSlope: 0
        tangentMode: 0
      - time: 1.44999933
        value: .617101014
        inSlope: 0
        outSlope: 0
        tangentMode: 0
      - time: 1.46666598
        value: .617101014
        inSlope: 0
        outSlope: 0
        tangentMode: 0
      - time: 1.48333335
        value: .617101014
        inSlope: 0
        outSlope: 0
        tangentMode: 0
      m_PreInfinity: 2
      m_PostInfinity: 2
    attribute: m_LocalRotation.z
    path: 2D/HeadFlash
    classID: 4
    script: {fileID: 0}
  - curve:
      serializedVersion: 2
      m_Curve:
      - time: 0
        value: 1
        inSlope: -.00603675796
        outSlope: -.00603675796
        tangentMode: 0
      - time: .0166666675
        value: .999899387
        inSlope: -.0121074906
        outSlope: -.0121074906
        tangentMode: 0
      - time: .0333333351
        value: .999596417
        inSlope: -.0243043862
        outSlope: -.0243043862
        tangentMode: 0
      - time: .0500000045
        value: .999089241
        inSlope: -.0365924835
        outSlope: -.0365924835
        tangentMode: 0
      - time: .0666666701
        value: .998376667
        inSlope: -.048946742
        outSlope: -.048946742
        tangentMode: 0
      - time: .0833333358
        value: .997457683
        inSlope: -.0613528565
        outSlope: -.0613528565
        tangentMode: 0
      - time: .100000001
        value: .996331573
        inSlope: -.0737911537
        outSlope: -.0737911537
        tangentMode: 0
      - time: .116666667
        value: .994997978
        inSlope: -.0862401575
        outSlope: -.0862401575
        tangentMode: 0
      - time: .13333334
        value: .9934569
        inSlope: -.0986802429
        outSlope: -.0986802429
        tangentMode: 0
      - time: .150000006
        value: .991708636
        inSlope: -.11109174
        outSlope: -.11109174
        tangentMode: 0
      - time: .166666672
        value: .989753842
        inSlope: -.123453155
        outSlope: -.123453155
        tangentMode: 0
      - time: .183333337
        value: .987593532
        inSlope: -.135744825
        outSlope: -.135744825
        tangentMode: 0
      - time: .200000003
        value: .985229015
        inSlope: -.147948876
        outSlope: -.147948876
        tangentMode: 0
      - time: .216666669
        value: .982661903
        inSlope: -.160043851
        outSlope: -.160043851
        tangentMode: 0
      - time: .233333334
        value: .979894221
        inSlope: -.172011867
        outSlope: -.172011867
        tangentMode: 0
      - time: .25
        value: .976928174
        inSlope: -.183834955
        outSlope: -.183834955
        tangentMode: 0
      - time: .266666681
        value: .973766387
        inSlope: -.195489958
        outSlope: -.195489958
        tangentMode: 0
      - time: .283333361
        value: .970411837
        inSlope: -.206959069
        outSlope: -.206959069
        tangentMode: 0
      - time: .300000042
        value: .966867745
        inSlope: -.218226135
        outSlope: -.218226135
        tangentMode: 0
      - time: .316666722
        value: .963137627
        inSlope: -.229271457
        outSlope: -.229271457
        tangentMode: 0
      - time: .333333403
        value: .959225357
        inSlope: -.240077168
        outSlope: -.240077168
        tangentMode: 0
      - time: .350000083
        value: .955135047
        inSlope: -.250625402
        outSlope: -.250625402
        tangentMode: 0
      - time: .366666764
        value: .95087117
        inSlope: -.260901839
        outSlope: -.260901839
        tangentMode: 0
      - time: .383333445
        value: .946438313
        inSlope: -.270886779
        outSlope: -.270886779
        tangentMode: 0
      - time: .400000125
        value: .941841602
        inSlope: -.280562401
        outSlope: -.280562401
        tangentMode: 0
      - time: .416666806
        value: .937086225
        inSlope: -.289917946
        outSlope: -.289917946
        tangentMode: 0
      - time: .433333486
        value: .932177663
        inSlope: -.298935533
        outSlope: -.298935533
        tangentMode: 0
      - time: .450000167
        value: .927121699
        inSlope: -.307600856
        outSlope: -.307600856
        tangentMode: 0
      - time: .466666847
        value: .921924293
        inSlope: -.315899581
        outSlope: -.315899581
        tangentMode: 0
      - time: .483333528
        value: .916591704
        inSlope: -.32381773
        outSlope: -.32381773
        tangentMode: 0
      - time: .500000179
        value: .911130369
        inSlope: -.335020721
        outSlope: -.335020721
        tangentMode: 0
      - time: .51666683
        value: .905424356
        inSlope: -.352841377
        outSlope: -.352841377
        tangentMode: 0
      - time: .53333348
        value: .899369001
        inSlope: -.372986555
        outSlope: -.372986555
        tangentMode: 0
      - time: .550000131
        value: .892991483
        inSlope: -.391365051
        outSlope: -.391365051
        tangentMode: 0
      - time: .566666782
        value: .886323512
        inSlope: -.40769437
        outSlope: -.40769437
        tangentMode: 0
      - time: .583333433
        value: .879401684
        inSlope: -.421683013
        outSlope: -.421683013
        tangentMode: 0
      - time: .600000083
        value: .872267425
        inSlope: -.433041275
        outSlope: -.433041275
        tangentMode: 0
      - time: .616666734
        value: .864966989
        inSlope: -.441481292
        outSlope: -.441481292
        tangentMode: 0
      - time: .633333385
        value: .857551396
        inSlope: -.446718752
        outSlope: -.446718752
        tangentMode: 0
      - time: .650000036
        value: .850076377
        inSlope: -.448487222
        outSlope: -.448487222
        tangentMode: 0
      - time: .666666687
        value: .842601836
        inSlope: -.446536362
        outSlope: -.446536362
        tangentMode: 0
      - time: .683333337
        value: .835191846
        inSlope: -.440639079
        outSlope: -.440639079
        tangentMode: 0
      - time: .699999988
        value: .82791388
        inSlope: -.430587947
        outSlope: -.430587947
        tangentMode: 0
      - time: .716666639
        value: .820838928
        inSlope: -.416205943
        outSlope: -.416205943
        tangentMode: 0
      - time: .73333329
        value: .814040363
        inSlope: -.397351742
        outSlope: -.397351742
        tangentMode: 0
      - time: .74999994
        value: .807593882
        inSlope: -.373907447
        outSlope: -.373907447
        tangentMode: 0
      - time: .766666591
        value: .801576793
        inSlope: -.345799685
        outSlope: -.345799685
        tangentMode: 0
      - time: .783333242
        value: .796067238
        inSlope: -.312996209
        outSlope: -.312996209
        tangentMode: 0
      - time: .799999893
        value: .791143596
        inSlope: -.275498867
        outSlope: -.275498867
        tangentMode: 0
      - time: .816666543
        value: .78688395
        inSlope: -.230128378
        outSlope: -.230128378
        tangentMode: 0
      - time: .833333194
        value: .783472657
        inSlope: -.176947296
        outSlope: -.176947296
        tangentMode: 0
      - time: .849999845
        value: .780985713
        inSlope: -.124223948
        outSlope: -.124223948
        tangentMode: 0
      - time: .866666496
        value: .779331863
        inSlope: -.0771600753
        outSlope: -.0771600753
        tangentMode: 0
      - time: .883333147
        value: .778413713
        inSlope: -.0360668041
        outSlope: -.0360668041
        tangentMode: 0
      - time: .899999797
        value: .778129637
        inSlope: -.00116229197
        outSlope: -.00116229197
        tangentMode: 0
      - time: .916666448
        value: .77837497
        inSlope: .0274104141
        outSlope: .0274104141
        tangentMode: 0
      - time: .933333099
        value: .779043317
        inSlope: .0495833606
        outSlope: .0495833606
        tangentMode: 0
      - time: .94999975
        value: .780027747
        inSlope: .0653350949
        outSlope: .0653350949
        tangentMode: 0
      - time: .9666664
        value: .781221151
        inSlope: .0746888667
        outSlope: .0746888667
        tangentMode: 0
      - time: .983333051
        value: .782517374
        inSlope: .0776911527
        outSlope: .0776911527
        tangentMode: 0
      - time: .999999702
        value: .783810854
        inSlope: .0743990541
        outSlope: .0743990541
        tangentMode: 0
      - time: 1.01666641
        value: .784997344
        inSlope: .0648772046
        outSlope: .0648772046
        tangentMode: 0
      - time: 1.03333306
        value: .78597343
        inSlope: .0491756648
        outSlope: .0491756648
        tangentMode: 0
      - time: 1.04999971
        value: .786636531
        inSlope: .0273138545
        outSlope: .0273138545
        tangentMode: 0
      - time: 1.06666636
        value: .786883891
        inSlope: .0074225734
        outSlope: .0074225734
        tangentMode: 0
      - time: 1.08333302
        value: .78688395
        inSlope: 1.78814105e-06
        outSlope: 1.78814105e-06
        tangentMode: 0
      - time: 1.09999967
        value: .78688395
        inSlope: 0
        outSlope: 0
        tangentMode: 0
      - time: 1.11666632
        value: .78688395
        inSlope: 0
        outSlope: 0
        tangentMode: 0
      - time: 1.13333297
        value: .78688395
        inSlope: 0
        outSlope: 0
        tangentMode: 0
      - time: 1.14999962
        value: .78688395
        inSlope: 0
        outSlope: 0
        tangentMode: 0
      - time: 1.16666627
        value: .78688395
        inSlope: 0
        outSlope: 0
        tangentMode: 0
      - time: 1.18333292
        value: .78688395
        inSlope: 0
        outSlope: 0
        tangentMode: 0
      - time: 1.19999957
        value: .78688395
        inSlope: 0
        outSlope: 0
        tangentMode: 0
      - time: 1.21666622
        value: .78688395
        inSlope: 0
        outSlope: 0
        tangentMode: 0
      - time: 1.23333287
        value: .78688395
        inSlope: 0
        outSlope: 0
        tangentMode: 0
      - time: 1.24999952
        value: .78688395
        inSlope: 0
        outSlope: 0
        tangentMode: 0
      - time: 1.26666617
        value: .78688395
        inSlope: 0
        outSlope: 0
        tangentMode: 0
      - time: 1.28333282
        value: .78688395
        inSlope: 0
        outSlope: 0
        tangentMode: 0
      - time: 1.29999948
        value: .78688395
        inSlope: 0
        outSlope: 0
        tangentMode: 0
      - time: 1.31666613
        value: .78688395
        inSlope: 0
        outSlope: 0
        tangentMode: 0
      - time: 1.33333278
        value: .78688395
        inSlope: 0
        outSlope: 0
        tangentMode: 0
      - time: 1.34999943
        value: .78688395
        inSlope: 0
        outSlope: 0
        tangentMode: 0
      - time: 1.36666608
        value: .78688395
        inSlope: 0
        outSlope: 0
        tangentMode: 0
      - time: 1.38333273
        value: .78688395
        inSlope: 0
        outSlope: 0
        tangentMode: 0
      - time: 1.39999938
        value: .78688395
        inSlope: 0
        outSlope: 0
        tangentMode: 0
      - time: 1.41666603
        value: .78688395
        inSlope: 0
        outSlope: 0
        tangentMode: 0
      - time: 1.43333268
        value: .78688395
        inSlope: 0
        outSlope: 0
        tangentMode: 0
      - time: 1.44999933
        value: .78688395
        inSlope: 0
        outSlope: 0
        tangentMode: 0
      - time: 1.46666598
        value: .78688395
        inSlope: 0
        outSlope: 0
        tangentMode: 0
      - time: 1.48333335
        value: .78688395
        inSlope: 0
        outSlope: 0
        tangentMode: 0
      m_PreInfinity: 2
      m_PostInfinity: 2
    attribute: m_LocalRotation.w
    path: 2D/HeadFlash
    classID: 4
    script: {fileID: 0}
  m_EulerEditorCurves:
  - curve:
      serializedVersion: 2
      m_Curve:
      - time: 0
        value: 0
        inSlope: 0
        outSlope: 0
        tangentMode: 10
      - time: .5
        value: 0
        inSlope: 0
        outSlope: 0
        tangentMode: 10
      - time: .816666663
        value: 0
        inSlope: 0
        outSlope: 0
        tangentMode: 10
      - time: 1.06683338
        value: 0
        inSlope: 0
        outSlope: 0
        tangentMode: 10
      - time: 1.48333335
        value: 0
        inSlope: 0
        outSlope: 0
        tangentMode: 10
      m_PreInfinity: 2
      m_PostInfinity: 2
    attribute: localEulerAnglesBaked.x
    path: 2D/HeadFlash
    classID: 4
    script: {fileID: 0}
  - curve:
      serializedVersion: 2
      m_Curve:
      - time: 0
        value: 0
        inSlope: 0
        outSlope: 0
        tangentMode: 10
      - time: .5
        value: 0
        inSlope: 0
        outSlope: 0
        tangentMode: 10
      - time: .816666663
        value: 0
        inSlope: 0
        outSlope: 0
        tangentMode: 10
      - time: 1.06683338
        value: 0
        inSlope: 0
        outSlope: 0
        tangentMode: 10
      - time: 1.48333335
        value: 0
        inSlope: 0
        outSlope: 0
        tangentMode: 10
      m_PreInfinity: 2
      m_PostInfinity: 2
    attribute: localEulerAnglesBaked.y
    path: 2D/HeadFlash
    classID: 4
    script: {fileID: 0}
  - curve:
      serializedVersion: 2
      m_Curve:
      - time: 0
        value: 0
        inSlope: 97.3518372
        outSlope: 97.3518372
        tangentMode: 10
      - time: .5
        value: 48.6759186
        inSlope: 92.1499786
        outSlope: 92.1499786
        tangentMode: 10
      - time: .816666663
        value: 76.2094879
        inSlope: 43.4740562
        outSlope: 43.4740562
        tangentMode: 10
      - time: 1.06683338
        value: 76.2094879
        inSlope: 0
        outSlope: 0
        tangentMode: 10
      - time: 1.48333335
        value: 76.2094879
        inSlope: 0
        outSlope: 0
        tangentMode: 10
      m_PreInfinity: 2
      m_PostInfinity: 2
    attribute: localEulerAnglesBaked.z
    path: 2D/HeadFlash
    classID: 4
    script: {fileID: 0}
  m_Events: []
